…
``` r
weather_df = 
  rnoaa::meteo_pull_monitors(c("USW00094728", "USC00519397", "USS0023B17S"),
                      var = c("PRCP", "TMIN", "TMAX"), 
                      date_min = "2017-01-01",
                      date_max = "2017-12-31") %>%
  mutate(
    name = recode(id, USW00094728 = "CentralPark_NY", 
                      USC00519397 = "Waikiki_HA",
                      USS0023B17S = "Waterhole_WA"),
    tmin = tmin / 10,
    tmax = tmax / 10) %>%
  select(name, id, everything())
weather_df
## # A tibble: 1,095 x 6
##    name           id          date        prcp    tmax  tmin
##    <chr>          <chr>       <date>     <dbl>   <dbl> <dbl>
##  1 CentralPark_NY USW00094728 2017-01-01    0.   8.90   4.40
##  2 CentralPark_NY USW00094728 2017-01-02   53.   5.00   2.80
##  3 CentralPark_NY USW00094728 2017-01-03  147.   6.10   3.90
##  4 CentralPark_NY USW00094728 2017-01-04    0.  11.1    1.10
##  5 CentralPark_NY USW00094728 2017-01-05    0.   1.10  -2.70
##  6 CentralPark_NY USW00094728 2017-01-06   13.   0.600 -3.80
##  7 CentralPark_NY USW00094728 2017-01-07   81.  -3.20  -6.60
##  8 CentralPark_NY USW00094728 2017-01-08    0.  -3.80  -8.80
##  9 CentralPark_NY USW00094728 2017-01-09    0.  -4.90  -9.90
## 10 CentralPark_NY USW00094728 2017-01-10    0.   7.80  -6.00
## # ... with 1,085 more rows
```

``` r
weather_df %>% 
  mutate(name = factor(name))
## # A tibble: 1,095 x 6
##    name           id          date        prcp    tmax  tmin
##    <fct>          <chr>       <date>     <dbl>   <dbl> <dbl>
##  1 CentralPark_NY USW00094728 2017-01-01    0.   8.90   4.40
##  2 CentralPark_NY USW00094728 2017-01-02   53.   5.00   2.80
##  3 CentralPark_NY USW00094728 2017-01-03  147.   6.10   3.90
##  4 CentralPark_NY USW00094728 2017-01-04    0.  11.1    1.10
##  5 CentralPark_NY USW00094728 2017-01-05    0.   1.10  -2.70
##  6 CentralPark_NY USW00094728 2017-01-06   13.   0.600 -3.80
##  7 CentralPark_NY USW00094728 2017-01-07   81.  -3.20  -6.60
##  8 CentralPark_NY USW00094728 2017-01-08    0.  -3.80  -8.80
##  9 CentralPark_NY USW00094728 2017-01-09    0.  -4.90  -9.90
## 10 CentralPark_NY USW00094728 2017-01-10    0.   7.80  -6.00
## # ... with 1,085 more rows
```
…
